<svg xmlns="http://www.w3.org/2000/svg" width="9.424" height="16.026" viewBox="0 0 9.424 16.026">
  <defs>
    <style>
      .cls-1 {
        fill: #888;
      }
    </style>
  </defs>
  <path id="icon-chevron-right" class="cls-1" d="M14.815,10.378a1.362,1.362,0,0,1,1.92,0l6.708,6.729a1.356,1.356,0,0,1,.042,1.87l-6.609,6.63a1.355,1.355,0,1,1-1.92-1.912l5.618-5.7-5.759-5.7A1.341,1.341,0,0,1,14.815,10.378Z" transform="translate(-14.414 -9.983)"/>
</svg>
