<svg xmlns="http://www.w3.org/2000/svg" width="50" height="50" viewBox="0 0 50 50">
  <defs>
    <style>
      .cls-1 {
        fill: #f8f8f8;
      }
    </style>
  </defs>
  <rect id="長方形_121" data-name="長方形 121" class="cls-1" width="50" height="50"/>
</svg>
